{
  "name": "bitflow",
  "version": "0.2.11",
  "dependencies": {
    "bitcore": {
      "version": "0.11.6",
      "from": "bitcore@=0.11.6",
      "resolved": "https://registry.npmjs.org/bitcore/-/bitcore-0.11.6.tgz",
      "dependencies": {
        "bn.js": {
          "version": "0.16.1",
          "from": "https://registry.npmjs.org/bn.js/-/bn.js-0.16.1.tgz",
          "resolved": "https://registry.npmjs.org/bn.js/-/bn.js-0.16.1.tgz"
        },
        "bs58": {
          "version": "2.0.0",
          "from": "https://registry.npmjs.org/bs58/-/bs58-2.0.0.tgz",
          "resolved": "https://registry.npmjs.org/bs58/-/bs58-2.0.0.tgz"
        },
        "elliptic": {
          "version": "0.16.0",
          "from": "https://registry.npmjs.org/elliptic/-/elliptic-0.16.0.tgz",
          "resolved": "https://registry.npmjs.org/elliptic/-/elliptic-0.16.0.tgz",
          "dependencies": {
            "brorand": {
              "version": "1.0.1",
              "from": "https://registry.npmjs.org/brorand/-/brorand-1.0.1.tgz",
              "resolved": "https://registry.npmjs.org/brorand/-/brorand-1.0.1.tgz"
            }
          }
        },
        "hash.js": {
          "version": "0.3.2",
          "from": "https://registry.npmjs.org/hash.js/-/hash.js-0.3.2.tgz",
          "resolved": "https://registry.npmjs.org/hash.js/-/hash.js-0.3.2.tgz"
        },
        "inherits": {
          "version": "2.0.1",
          "from": "https://registry.npmjs.org/inherits/-/inherits-2.0.1.tgz",
          "resolved": "https://registry.npmjs.org/inherits/-/inherits-2.0.1.tgz"
        },
        "lodash": {
          "version": "2.4.1",
          "from": "https://registry.npmjs.org/lodash/-/lodash-2.4.1.tgz",
          "resolved": "https://registry.npmjs.org/lodash/-/lodash-2.4.1.tgz"
        },
        "sha512": {
          "version": "0.0.1",
          "from": "https://registry.npmjs.org/sha512/-/sha512-0.0.1.tgz",
          "resolved": "https://registry.npmjs.org/sha512/-/sha512-0.0.1.tgz"
        }
      }
    },
    "bitcore-p2p": {
      "version": "0.12.0",
      "from": "bitcore-p2p@=0.12.0",
      "resolved": "https://registry.npmjs.org/bitcore-p2p/-/bitcore-p2p-0.12.0.tgz",
      "dependencies": {
        "bloom-filter": {
          "version": "0.2.0",
          "from": "bloom-filter@^0.2.0",
          "resolved": "https://registry.npmjs.org/bloom-filter/-/bloom-filter-0.2.0.tgz"
        },
        "buffers": {
          "version": "0.1.1",
          "from": "buffers@^0.1.1",
          "resolved": "https://registry.npmjs.org/buffers/-/buffers-0.1.1.tgz"
        },
        "socks5-client": {
          "version": "0.3.6",
          "from": "socks5-client@^0.3.6",
          "resolved": "https://registry.npmjs.org/socks5-client/-/socks5-client-0.3.6.tgz",
          "dependencies": {
            "ipv6": {
              "version": "3.1.1",
              "from": "ipv6@~3.1.1",
              "resolved": "https://registry.npmjs.org/ipv6/-/ipv6-3.1.1.tgz",
              "dependencies": {
                "sprintf": {
                  "version": "0.1.5",
                  "from": "sprintf@0.1.x",
                  "resolved": "https://registry.npmjs.org/sprintf/-/sprintf-0.1.5.tgz"
                },
                "cli": {
                  "version": "0.4.5",
                  "from": "cli@0.4.x",
                  "resolved": "https://registry.npmjs.org/cli/-/cli-0.4.5.tgz",
                  "dependencies": {
                    "glob": {
                      "version": "5.0.3",
                      "from": "glob@>= 3.1.4",
                      "resolved": "https://registry.npmjs.org/glob/-/glob-5.0.3.tgz",
                      "dependencies": {
                        "inflight": {
                          "version": "1.0.4",
                          "from": "inflight@^1.0.4",
                          "resolved": "https://registry.npmjs.org/inflight/-/inflight-1.0.4.tgz",
                          "dependencies": {
                            "wrappy": {
                              "version": "1.0.1",
                              "from": "wrappy@1",
                              "resolved": "https://registry.npmjs.org/wrappy/-/wrappy-1.0.1.tgz"
                            }
                          }
                        },
                        "inherits": {
                          "version": "2.0.1",
                          "from": "inherits@2",
                          "resolved": "https://registry.npmjs.org/inherits/-/inherits-2.0.1.tgz"
                        },
                        "minimatch": {
                          "version": "2.0.4",
                          "from": "minimatch@^2.0.1",
                          "resolved": "https://registry.npmjs.org/minimatch/-/minimatch-2.0.4.tgz",
                          "dependencies": {
                            "brace-expansion": {
                              "version": "1.1.0",
                              "from": "brace-expansion@^1.0.0",
                              "resolved": "https://registry.npmjs.org/brace-expansion/-/brace-expansion-1.1.0.tgz",
                              "dependencies": {
                                "balanced-match": {
                                  "version": "0.2.0",
                                  "from": "balanced-match@^0.2.0",
                                  "resolved": "https://registry.npmjs.org/balanced-match/-/balanced-match-0.2.0.tgz"
                                },
                                "concat-map": {
                                  "version": "0.0.1",
                                  "from": "concat-map@0.0.1",
                                  "resolved": "https://registry.npmjs.org/concat-map/-/concat-map-0.0.1.tgz"
                                }
                              }
                            }
                          }
                        },
                        "once": {
                          "version": "1.3.1",
                          "from": "once@^1.3.0",
                          "resolved": "https://registry.npmjs.org/once/-/once-1.3.1.tgz",
                          "dependencies": {
                            "wrappy": {
                              "version": "1.0.1",
                              "from": "wrappy@1",
                              "resolved": "https://registry.npmjs.org/wrappy/-/wrappy-1.0.1.tgz"
                            }
                          }
                        }
                      }
                    }
                  }
                },
                "cliff": {
                  "version": "0.1.10",
                  "from": "cliff@0.1.x",
                  "resolved": "https://registry.npmjs.org/cliff/-/cliff-0.1.10.tgz",
                  "dependencies": {
                    "colors": {
                      "version": "1.0.3",
                      "from": "colors@~1.0.3",
                      "resolved": "https://registry.npmjs.org/colors/-/colors-1.0.3.tgz"
                    },
                    "eyes": {
                      "version": "0.1.8",
                      "from": "eyes@~0.1.8",
                      "resolved": "https://registry.npmjs.org/eyes/-/eyes-0.1.8.tgz"
                    },
                    "winston": {
                      "version": "0.8.3",
                      "from": "winston@0.8.x",
                      "resolved": "https://registry.npmjs.org/winston/-/winston-0.8.3.tgz",
                      "dependencies": {
                        "async": {
                          "version": "0.2.10",
                          "from": "async@0.2.x",
                          "resolved": "https://registry.npmjs.org/async/-/async-0.2.10.tgz"
                        },
                        "colors": {
                          "version": "0.6.2",
                          "from": "colors@0.6.x",
                          "resolved": "https://registry.npmjs.org/colors/-/colors-0.6.2.tgz"
                        },
                        "cycle": {
                          "version": "1.0.3",
                          "from": "cycle@1.0.x",
                          "resolved": "https://registry.npmjs.org/cycle/-/cycle-1.0.3.tgz"
                        },
                        "isstream": {
                          "version": "0.1.2",
                          "from": "isstream@0.1.x",
                          "resolved": "https://registry.npmjs.org/isstream/-/isstream-0.1.2.tgz"
                        },
                        "pkginfo": {
                          "version": "0.3.0",
                          "from": "pkginfo@0.3.x",
                          "resolved": "https://registry.npmjs.org/pkginfo/-/pkginfo-0.3.0.tgz"
                        },
                        "stack-trace": {
                          "version": "0.0.9",
                          "from": "stack-trace@0.0.x",
                          "resolved": "https://registry.npmjs.org/stack-trace/-/stack-trace-0.0.9.tgz"
                        }
                      }
                    }
                  }
                }
              }
            },
            "network-byte-order": {
              "version": "0.2.0",
              "from": "network-byte-order@~0.2.0",
              "resolved": "https://registry.npmjs.org/network-byte-order/-/network-byte-order-0.2.0.tgz"
            }
          }
        }
      }
    },
    "ejs": {
      "version": "1.0.0",
      "from": "https://registry.npmjs.org/ejs/-/ejs-1.0.0.tgz",
      "resolved": "https://registry.npmjs.org/ejs/-/ejs-1.0.0.tgz"
    },
    "express": {
      "version": "4.0.0",
      "from": "https://registry.npmjs.org/express/-/express-4.0.0.tgz",
      "resolved": "https://registry.npmjs.org/express/-/express-4.0.0.tgz",
      "dependencies": {
        "parseurl": {
          "version": "1.0.1",
          "from": "https://registry.npmjs.org/parseurl/-/parseurl-1.0.1.tgz",
          "resolved": "https://registry.npmjs.org/parseurl/-/parseurl-1.0.1.tgz"
        },
        "accepts": {
          "version": "1.0.0",
          "from": "https://registry.npmjs.org/accepts/-/accepts-1.0.0.tgz",
          "resolved": "https://registry.npmjs.org/accepts/-/accepts-1.0.0.tgz",
          "dependencies": {
            "mime": {
              "version": "1.2.11",
              "from": "https://registry.npmjs.org/mime/-/mime-1.2.11.tgz",
              "resolved": "https://registry.npmjs.org/mime/-/mime-1.2.11.tgz"
            },
            "negotiator": {
              "version": "0.3.0",
              "from": "https://registry.npmjs.org/negotiator/-/negotiator-0.3.0.tgz",
              "resolved": "https://registry.npmjs.org/negotiator/-/negotiator-0.3.0.tgz"
            }
          }
        },
        "type-is": {
          "version": "1.0.0",
          "from": "https://registry.npmjs.org/type-is/-/type-is-1.0.0.tgz",
          "resolved": "https://registry.npmjs.org/type-is/-/type-is-1.0.0.tgz",
          "dependencies": {
            "mime": {
              "version": "1.2.11",
              "from": "https://registry.npmjs.org/mime/-/mime-1.2.11.tgz",
              "resolved": "https://registry.npmjs.org/mime/-/mime-1.2.11.tgz"
            }
          }
        },
        "range-parser": {
          "version": "1.0.0",
          "from": "https://registry.npmjs.org/range-parser/-/range-parser-1.0.0.tgz",
          "resolved": "https://registry.npmjs.org/range-parser/-/range-parser-1.0.0.tgz"
        },
        "cookie": {
          "version": "0.1.0",
          "from": "https://registry.npmjs.org/cookie/-/cookie-0.1.0.tgz",
          "resolved": "https://registry.npmjs.org/cookie/-/cookie-0.1.0.tgz"
        },
        "buffer-crc32": {
          "version": "0.2.1",
          "from": "https://registry.npmjs.org/buffer-crc32/-/buffer-crc32-0.2.1.tgz",
          "resolved": "https://registry.npmjs.org/buffer-crc32/-/buffer-crc32-0.2.1.tgz"
        },
        "fresh": {
          "version": "0.2.2",
          "from": "https://registry.npmjs.org/fresh/-/fresh-0.2.2.tgz",
          "resolved": "https://registry.npmjs.org/fresh/-/fresh-0.2.2.tgz"
        },
        "methods": {
          "version": "0.1.0",
          "from": "https://registry.npmjs.org/methods/-/methods-0.1.0.tgz",
          "resolved": "https://registry.npmjs.org/methods/-/methods-0.1.0.tgz"
        },
        "send": {
          "version": "0.2.0",
          "from": "https://registry.npmjs.org/send/-/send-0.2.0.tgz",
          "resolved": "https://registry.npmjs.org/send/-/send-0.2.0.tgz",
          "dependencies": {
            "mime": {
              "version": "1.2.11",
              "from": "https://registry.npmjs.org/mime/-/mime-1.2.11.tgz",
              "resolved": "https://registry.npmjs.org/mime/-/mime-1.2.11.tgz"
            }
          }
        },
        "cookie-signature": {
          "version": "1.0.3",
          "from": "https://registry.npmjs.org/cookie-signature/-/cookie-signature-1.0.3.tgz",
          "resolved": "https://registry.npmjs.org/cookie-signature/-/cookie-signature-1.0.3.tgz"
        },
        "merge-descriptors": {
          "version": "0.0.2",
          "from": "https://registry.npmjs.org/merge-descriptors/-/merge-descriptors-0.0.2.tgz",
          "resolved": "https://registry.npmjs.org/merge-descriptors/-/merge-descriptors-0.0.2.tgz"
        },
        "utils-merge": {
          "version": "1.0.0",
          "from": "https://registry.npmjs.org/utils-merge/-/utils-merge-1.0.0.tgz",
          "resolved": "https://registry.npmjs.org/utils-merge/-/utils-merge-1.0.0.tgz"
        },
        "escape-html": {
          "version": "1.0.1",
          "from": "https://registry.npmjs.org/escape-html/-/escape-html-1.0.1.tgz",
          "resolved": "https://registry.npmjs.org/escape-html/-/escape-html-1.0.1.tgz"
        },
        "qs": {
          "version": "0.6.6",
          "from": "https://registry.npmjs.org/qs/-/qs-0.6.6.tgz",
          "resolved": "https://registry.npmjs.org/qs/-/qs-0.6.6.tgz"
        },
        "serve-static": {
          "version": "1.0.1",
          "from": "https://registry.npmjs.org/serve-static/-/serve-static-1.0.1.tgz",
          "resolved": "https://registry.npmjs.org/serve-static/-/serve-static-1.0.1.tgz",
          "dependencies": {
            "send": {
              "version": "0.1.4",
              "from": "https://registry.npmjs.org/send/-/send-0.1.4.tgz",
              "resolved": "https://registry.npmjs.org/send/-/send-0.1.4.tgz",
              "dependencies": {
                "mime": {
                  "version": "1.2.11",
                  "from": "https://registry.npmjs.org/mime/-/mime-1.2.11.tgz",
                  "resolved": "https://registry.npmjs.org/mime/-/mime-1.2.11.tgz"
                },
                "fresh": {
                  "version": "0.2.0",
                  "from": "https://registry.npmjs.org/fresh/-/fresh-0.2.0.tgz",
                  "resolved": "https://registry.npmjs.org/fresh/-/fresh-0.2.0.tgz"
                },
                "range-parser": {
                  "version": "0.0.4",
                  "from": "https://registry.npmjs.org/range-parser/-/range-parser-0.0.4.tgz",
                  "resolved": "https://registry.npmjs.org/range-parser/-/range-parser-0.0.4.tgz"
                }
              }
            }
          }
        },
        "path-to-regexp": {
          "version": "0.1.2",
          "from": "https://registry.npmjs.org/path-to-regexp/-/path-to-regexp-0.1.2.tgz",
          "resolved": "https://registry.npmjs.org/path-to-regexp/-/path-to-regexp-0.1.2.tgz"
        },
        "debug": {
          "version": "0.8.1",
          "from": "https://registry.npmjs.org/debug/-/debug-0.8.1.tgz",
          "resolved": "https://registry.npmjs.org/debug/-/debug-0.8.1.tgz"
        }
      }
    },
    "socket.io": {
      "version": "0.9.16",
      "from": "https://registry.npmjs.org/socket.io/-/socket.io-0.9.16.tgz",
      "resolved": "https://registry.npmjs.org/socket.io/-/socket.io-0.9.16.tgz",
      "dependencies": {
        "socket.io-client": {
          "version": "0.9.16",
          "from": "https://registry.npmjs.org/socket.io-client/-/socket.io-client-0.9.16.tgz",
          "resolved": "https://registry.npmjs.org/socket.io-client/-/socket.io-client-0.9.16.tgz",
          "dependencies": {
            "uglify-js": {
              "version": "1.2.5",
              "from": "https://registry.npmjs.org/uglify-js/-/uglify-js-1.2.5.tgz",
              "resolved": "https://registry.npmjs.org/uglify-js/-/uglify-js-1.2.5.tgz"
            },
            "ws": {
              "version": "0.4.32",
              "from": "https://registry.npmjs.org/ws/-/ws-0.4.32.tgz",
              "resolved": "https://registry.npmjs.org/ws/-/ws-0.4.32.tgz",
              "dependencies": {
                "commander": {
                  "version": "2.1.0",
                  "from": "https://registry.npmjs.org/commander/-/commander-2.1.0.tgz",
                  "resolved": "https://registry.npmjs.org/commander/-/commander-2.1.0.tgz"
                },
                "nan": {
                  "version": "1.0.0",
                  "from": "https://registry.npmjs.org/nan/-/nan-1.0.0.tgz",
                  "resolved": "https://registry.npmjs.org/nan/-/nan-1.0.0.tgz"
                },
                "tinycolor": {
                  "version": "0.0.1",
                  "from": "https://registry.npmjs.org/tinycolor/-/tinycolor-0.0.1.tgz",
                  "resolved": "https://registry.npmjs.org/tinycolor/-/tinycolor-0.0.1.tgz"
                },
                "options": {
                  "version": "0.0.6",
                  "from": "https://registry.npmjs.org/options/-/options-0.0.6.tgz",
                  "resolved": "https://registry.npmjs.org/options/-/options-0.0.6.tgz"
                }
              }
            },
            "xmlhttprequest": {
              "version": "1.4.2",
              "from": "https://registry.npmjs.org/xmlhttprequest/-/xmlhttprequest-1.4.2.tgz",
              "resolved": "https://registry.npmjs.org/xmlhttprequest/-/xmlhttprequest-1.4.2.tgz"
            },
            "active-x-obfuscator": {
              "version": "0.0.1",
              "from": "https://registry.npmjs.org/active-x-obfuscator/-/active-x-obfuscator-0.0.1.tgz",
              "resolved": "https://registry.npmjs.org/active-x-obfuscator/-/active-x-obfuscator-0.0.1.tgz",
              "dependencies": {
                "zeparser": {
                  "version": "0.0.5",
                  "from": "https://registry.npmjs.org/zeparser/-/zeparser-0.0.5.tgz",
                  "resolved": "https://registry.npmjs.org/zeparser/-/zeparser-0.0.5.tgz"
                }
              }
            }
          }
        },
        "policyfile": {
          "version": "0.0.4",
          "from": "https://registry.npmjs.org/policyfile/-/policyfile-0.0.4.tgz",
          "resolved": "https://registry.npmjs.org/policyfile/-/policyfile-0.0.4.tgz"
        },
        "base64id": {
          "version": "0.1.0",
          "from": "https://registry.npmjs.org/base64id/-/base64id-0.1.0.tgz",
          "resolved": "https://registry.npmjs.org/base64id/-/base64id-0.1.0.tgz"
        },
        "redis": {
          "version": "0.7.3",
          "from": "https://registry.npmjs.org/redis/-/redis-0.7.3.tgz",
          "resolved": "https://registry.npmjs.org/redis/-/redis-0.7.3.tgz"
        }
      }
    }
  }
}
